{
  "users": [
    {
      "id": 1,
      "email": "hello@hello.fr",
      "firstname": "Julien",
      "pass": "Test1234",
      "token": "julien-token"
    }
  ],
  "products": [
    {
      "id": 1,
      "name": "Faucon Millenium",
      "desc": "Ce set Faucon Millenium™ LEGO® Star Wars™ 75257 constitue une formidable source d’inspiration pour les plus jeunes comme pour les adultes.",
      "price": 149.99
    },
    {
      "id": 2,
      "name": "Imperial Star Destroyer",
      "desc": "Le Devastator : une icône de l’Empire galactique à construire et à exposer.",
      "price": 699.99
    },
    {
      "id": 3,
      "name": "La navette de Kylo Ren",
      "desc": "Place à de formidables aventures intergalactiques avec La navette de Kylo Ren LEGO® Star Wars™ 75256.",
      "price": 129.99
    },
    {
      "id": 4,
      "name": "Yoda™",
      "desc": "Les fans vont pouvoir enrichir leur collection avec deux personnages Yoda LEGO® Star Wars™ dans un même set !",
      "price": 109.99
    },
    {
      "id": 5,
      "name": "Y-Wing Starfighter™ de la Résistance",
      "desc": "Les jeunes enfants et les collectionneurs peuvent laisser libre cours à leur imagination avec le Y-wing Starfighter de la Résistance LEGO® Star Wars™ 75249.",
      "price": 69.99
    }
  ]
}
